\relax 
\providecommand\hyper@newdestlabel[2]{}
\providecommand\BKM@entry[2]{}
\providecommand\HyperFirstAtBeginDocument{\AtBeginDocument}
\HyperFirstAtBeginDocument{\ifx\hyper@anchor\@undefined
\global\let\oldcontentsline\contentsline
\gdef\contentsline#1#2#3#4{\oldcontentsline{#1}{#2}{#3}}
\global\let\oldnewlabel\newlabel
\gdef\newlabel#1#2{\newlabelxx{#1}#2}
\gdef\newlabelxx#1#2#3#4#5#6{\oldnewlabel{#1}{{#2}{#3}}}
\AtEndDocument{\ifx\hyper@anchor\@undefined
\let\contentsline\oldcontentsline
\let\newlabel\oldnewlabel
\fi}
\fi}
\global\let\hyper@last\relax 
\gdef\HyperFirstAtBeginDocument#1{#1}
\providecommand\HyField@AuxAddToFields[1]{}
\providecommand\HyField@AuxAddToCoFields[2]{}
\BKM@entry{id=1,dest={73656374696F6E2E31},srcline={21}}{50485C3330324E20545C3331354348204B5C333135434820484F4154204E455554524F4E202D204E4141}
\@writefile{toc}{\contentsline {section}{\numberline {1}PH\IeC {\^A}N T\IeC {\'I}CH K\IeC {\'I}CH HO\IeC {\d A}T NEUTRON - NAA}{1}{section.1}}
\newlabel{congthucQ}{{1.5}{1}{PHÂN TÍCH KÍCH HOẠT NEUTRON - NAA}{equation.1.5}{}}
\newlabel{congthucRcd}{{1.7}{2}{PHÂN TÍCH KÍCH HOẠT NEUTRON - NAA}{equation.1.7}{}}
\newlabel{D2_ti}{{1.8}{2}{PHÂN TÍCH KÍCH HOẠT NEUTRON - NAA}{equation.1.8}{}}
\newlabel{D2_td}{{1.9}{2}{PHÂN TÍCH KÍCH HOẠT NEUTRON - NAA}{equation.1.9}{}}
\newlabel{chuanhoatuyendoi}{{1.12}{2}{PHÂN TÍCH KÍCH HOẠT NEUTRON - NAA}{equation.1.12}{}}
\BKM@entry{id=2,dest={73656374696F6E2E32},srcline={124}}{4769616920425C333430692074702063686E672034}
\newlabel{chuanhoatuongdoi}{{1.13}{3}{PHÂN TÍCH KÍCH HOẠT NEUTRON - NAA}{equation.1.13}{}}
\newlabel{chuanhoadonnguyento}{{1.15}{3}{PHÂN TÍCH KÍCH HOẠT NEUTRON - NAA}{equation.1.15}{}}
\newlabel{chuanhoak0}{{1.17}{3}{PHÂN TÍCH KÍCH HOẠT NEUTRON - NAA}{equation.1.17}{}}
\@writefile{toc}{\contentsline {section}{\numberline {2}Gi\IeC {\h a}i B\IeC {\`a}i t\IeC {\d \acircumflex }p ch\IeC {\uhorn }\IeC {\ohorn }ng 4}{3}{section.2}}
\@writefile{lot}{\contentsline {table}{\numberline {1}{\ignorespaces K\IeC {\'\ecircumflex }t qu\IeC {\h a} b\IeC {\`a}i 4.1}}{3}{table.1}}
\@writefile{lot}{\contentsline {table}{\numberline {2}{\ignorespaces k\IeC {\'\ecircumflex }t qu\IeC {\h a} s\IeC {\'\ocircumflex } li\IeC {\d \ecircumflex }u b\IeC {\`a}i 4.2}}{4}{table.2}}
\@writefile{lot}{\contentsline {table}{\numberline {3}{\ignorespaces B\IeC {\h a}ng s\IeC {\'\ocircumflex } li\IeC {\d \ecircumflex }u b\IeC {\`a}i 4.6a}}{4}{table.3}}
\@writefile{lot}{\contentsline {table}{\numberline {4}{\ignorespaces B\IeC {\h a}ng s\IeC {\'\ocircumflex } li\IeC {\d \ecircumflex }u b\IeC {\`a}i 4.6b}}{4}{table.4}}
\BKM@entry{id=3,dest={73656374696F6E2E33},srcline={256}}{4769616920625C333430692074702063686E672035}
\BKM@entry{id=4,dest={73756273656374696F6E2E332E31},srcline={257}}{425C3334306920352E31}
\BKM@entry{id=5,dest={73756273656374696F6E2E332E32},srcline={289}}{20425C3334306920352E32}
\@writefile{toc}{\contentsline {section}{\numberline {3}Gi\IeC {\h a}i b\IeC {\`a}i t\IeC {\d \acircumflex }p ch\IeC {\uhorn }\IeC {\ohorn }ng 5}{6}{section.3}}
\@writefile{toc}{\contentsline {subsection}{\numberline {3.1}B\IeC {\`a}i 5.1}{6}{subsection.3.1}}
\@writefile{lot}{\contentsline {table}{\numberline {5}{\ignorespaces B\IeC {\h a}ng s\IeC {\'\ocircumflex } li\IeC {\d \ecircumflex }u b\IeC {\`a}i 5.1}}{6}{table.5}}
\@writefile{toc}{\contentsline {subsection}{\numberline {3.2} B\IeC {\`a}i 5.2}{6}{subsection.3.2}}
\BKM@entry{id=6,dest={73756273656374696F6E2E332E33},srcline={321}}{425C3334306920362E32}
\@writefile{toc}{\contentsline {subsection}{\numberline {3.3}B\IeC {\`a}i 6.2}{7}{subsection.3.3}}
\BKM@entry{id=7,dest={73656374696F6E2E34},srcline={374}}{4855594E48205155414E47205449412058}
\BKM@entry{id=8,dest={73756273656374696F6E2E342E31},srcline={375}}{50686E672070685C333431702070685C3334326E20745C333535636820696E6820745C3335356E68}
\BKM@entry{id=9,dest={73756273656374696F6E2E342E32},srcline={390}}{50686E672070685C333431702070685C3334326E20745C333535636820696E68206C6E67}
\@writefile{toc}{\contentsline {section}{\numberline {4}HU\IeC {\`Y}NH QUANG TIA X}{8}{section.4}}
\@writefile{toc}{\contentsline {subsection}{\numberline {4.1}Ph\IeC {\uhorn }\IeC {\ohorn }ng ph\IeC {\'a}p ph\IeC {\^a}n t\IeC {\'\i }ch \IeC {\dj }\IeC {\d i}nh t\IeC {\'\i }nh}{8}{subsection.4.1}}
\newlabel{dinhluanmoselay}{{4.1}{8}{Phương pháp phân tích định tính}{equation.4.1}{}}
\@writefile{toc}{\contentsline {subsection}{\numberline {4.2}Ph\IeC {\uhorn }\IeC {\ohorn }ng ph\IeC {\'a}p ph\IeC {\^a}n t\IeC {\'\i }ch \IeC {\dj }\IeC {\d i}nh l\IeC {\uhorn }\IeC {\d \ohorn }ng}{9}{subsection.4.2}}
\newlabel{chuanngoaituyentinh1}{{4.6}{9}{Phương pháp phân tích định lượng}{equation.4.6}{}}
\newlabel{chuangngoaituyentinh2}{{4.7}{9}{Phương pháp phân tích định lượng}{equation.4.7}{}}
\newlabel{chuannoi}{{4.9}{9}{Phương pháp phân tích định lượng}{equation.4.9}{}}
\newlabel{donhay}{{4.12}{9}{Phương pháp phân tích định lượng}{equation.4.12}{}}
\newlabel{chuandonhay}{{4.13}{9}{Phương pháp phân tích định lượng}{equation.4.13}{}}
\BKM@entry{id=10,dest={73756273656374696F6E2E342E33},srcline={455}}{486975206368696E6820635C3334316320686975206E67}
\newlabel{chuanhamkichthic}{{4.16}{10}{Phương pháp phân tích định lượng}{equation.4.16}{}}
\@writefile{toc}{\contentsline {subsection}{\numberline {4.3}Hi\IeC {\d \ecircumflex }u ch\IeC {\h i}nh c\IeC {\'a}c hi\IeC {\d \ecircumflex }u \IeC {\'\uhorn }ng}{10}{subsection.4.3}}
\newlabel{lanchancetraill}{{4.17}{10}{Hiệu chỉnh các hiệu ứng}{equation.4.17}{}}
\newlabel{chuangngoaituyentinh2}{{4.20}{10}{Bài 2.9}{equation.4.20}{}}
\BKM@entry{id=11,dest={73656374696F6E2E35},srcline={637}}{4B696D20747261206C6E2032}
\@writefile{toc}{\contentsline {section}{\numberline {5}Ki\IeC {\h \ecircumflex }m tra l\IeC {\`\acircumflex }n 2}{14}{section.5}}
\@writefile{lot}{\contentsline {table}{\numberline {6}{\ignorespaces B\IeC {\h a}ng d\IeC {\~\uhorn } li\IeC {\d \ecircumflex }u m\IeC {\~\acircumflex }u chu\IeC {\h \acircumflex }n}}{16}{table.6}}
