\relax 
\providecommand\hyper@newdestlabel[2]{}
\providecommand\BKM@entry[2]{}
\providecommand\HyperFirstAtBeginDocument{\AtBeginDocument}
\HyperFirstAtBeginDocument{\ifx\hyper@anchor\@undefined
\global\let\oldcontentsline\contentsline
\gdef\contentsline#1#2#3#4{\oldcontentsline{#1}{#2}{#3}}
\global\let\oldnewlabel\newlabel
\gdef\newlabel#1#2{\newlabelxx{#1}#2}
\gdef\newlabelxx#1#2#3#4#5#6{\oldnewlabel{#1}{{#2}{#3}}}
\AtEndDocument{\ifx\hyper@anchor\@undefined
\let\contentsline\oldcontentsline
\let\newlabel\oldnewlabel
\fi}
\fi}
\global\let\hyper@last\relax 
\gdef\HyperFirstAtBeginDocument#1{#1}
\providecommand\HyField@AuxAddToFields[1]{}
\providecommand\HyField@AuxAddToCoFields[2]{}
\BKM@entry{id=1,dest={73656374696F6E2E31},srcline={14}}{50686E672074725C3335346E68206B6875636820745C3334316E}
\@writefile{toc}{\contentsline {section}{\numberline {1}Ph\IeC {\uhorn }\IeC {\ohorn }ng tr\IeC {\`\i }nh khu\IeC {\'\ecircumflex }ch t\IeC {\'a}n}{1}{section.1}}
\BKM@entry{id=2,dest={73656374696F6E2E32},srcline={49}}{4C5C333632204E686974}
\@writefile{toc}{\contentsline {section}{\numberline {2}L\IeC {\`o} Nhi\IeC {\d \ecircumflex }t}{2}{section.2}}
\BKM@entry{id=3,dest={73656374696F6E2E33},srcline={113}}{4C5C333632206E68616E68}
\BKM@entry{id=4,dest={73656374696F6E2E34},srcline={127}}{4C5C333632207068616E206E67207068752074687563207468656F20746869206769616E}
\@writefile{toc}{\contentsline {section}{\numberline {3}L\IeC {\`o} nhanh}{3}{section.3}}
\@writefile{toc}{\contentsline {section}{\numberline {4}L\IeC {\`o} ph\IeC {\h a}n \IeC {\'\uhorn }ng ph\IeC {\d u} thu\IeC {\d \ocircumflex }c theo th\IeC {\`\ohorn }i gian}{3}{section.4}}
\BKM@entry{id=5,dest={73656374696F6E2E35},srcline={152}}{47696169205C30343032303136}
\@writefile{toc}{\contentsline {section}{\numberline {5}Gi\IeC {\h a}i \IeC {\dj }\IeC {\`\ecircumflex } 2016}{5}{section.5}}
\@writefile{lof}{\contentsline {figure}{\numberline {1}{\ignorespaces M\IeC {\^o} t\IeC {\h a} M\IeC {\d \acircumflex }t \IeC {\dj }\IeC {\d \ocircumflex } d\IeC {\`o}ng * \IeC {\dj }\IeC {\`\ecircumflex } thi 2016}}{5}{figure.1}}
\@writefile{lof}{\contentsline {figure}{\numberline {2}{\ignorespaces M\IeC {\^o} t\IeC {\h a} m\IeC {\d \acircumflex }t \IeC {\dj }\IeC {\d \ocircumflex } d\IeC {\`o}ng neutron t\IeC {\d a}i M - \IeC {\DJ }\IeC {\`\ecircumflex } thi 2018}}{9}{figure.2}}
