\relax 
\providecommand\hyper@newdestlabel[2]{}
\providecommand\BKM@entry[2]{}
\providecommand\HyperFirstAtBeginDocument{\AtBeginDocument}
\HyperFirstAtBeginDocument{\ifx\hyper@anchor\@undefined
\global\let\oldcontentsline\contentsline
\gdef\contentsline#1#2#3#4{\oldcontentsline{#1}{#2}{#3}}
\global\let\oldnewlabel\newlabel
\gdef\newlabel#1#2{\newlabelxx{#1}#2}
\gdef\newlabelxx#1#2#3#4#5#6{\oldnewlabel{#1}{{#2}{#3}}}
\AtEndDocument{\ifx\hyper@anchor\@undefined
\let\contentsline\oldcontentsline
\let\newlabel\oldnewlabel
\fi}
\fi}
\global\let\hyper@last\relax 
\gdef\HyperFirstAtBeginDocument#1{#1}
\providecommand\HyField@AuxAddToFields[1]{}
\providecommand\HyField@AuxAddToCoFields[2]{}
\BKM@entry{id=1,dest={73656374696F6E2E31},srcline={14}}{50485C3330324E20422054484E47204B5C333132}
\BKM@entry{id=2,dest={73656374696F6E2E32},srcline={29}}{63206C6E67}
\@writefile{toc}{\contentsline {section}{\numberline {1}PH\IeC {\^A}N B\IeC {\'\OCIRCUMFLEX } TH\IeC {\'\OCIRCUMFLEX }NG K\IeC {\^E}}{1}{section.1}}
\@writefile{toc}{\contentsline {section}{\numberline {2}\IeC {\UHORN }\IeC {\'\ohorn }c l\IeC {\uhorn }\IeC {\d \ohorn }ng}{1}{section.2}}
\BKM@entry{id=3,dest={73656374696F6E2E33},srcline={64}}{4B696D20696E68}
\@writefile{toc}{\contentsline {section}{\numberline {3}Ki\IeC {\h \ecircumflex }m \IeC {\dj }\IeC {\d i}nh}{2}{section.3}}
\BKM@entry{id=4,dest={73656374696F6E2E34},srcline={105}}{4C5C3330304D204B4850}
\@writefile{toc}{\contentsline {section}{\numberline {4}L\IeC {\`A}M KH\IeC {\'\OHORN }P}{3}{section.4}}
\BKM@entry{id=5,dest={73656374696F6E2E35},srcline={169}}{5C3332302074686920637569206B5C333534206E616D2032303137202D2043612031}
\@writefile{toc}{\contentsline {section}{\numberline {5}\IeC {\DJ }\IeC {\`\ecircumflex } thi cu\IeC {\'\ocircumflex }i k\IeC {\`\i } n\IeC {\u a}m 2017 - Ca 1}{5}{section.5}}
\@writefile{lot}{\contentsline {table}{\numberline {1}{\ignorespaces B\IeC {\`a}i 1}}{5}{table.1}}
\newlabel{tab:addlabel}{{1}{5}{Bài 1}{table.1}{}}
\@writefile{lot}{\contentsline {table}{\numberline {2}{\ignorespaces C\IeC {\^a}u 2}}{5}{table.2}}
\newlabel{tab:addlabel}{{2}{5}{Câu 2}{table.2}{}}
\@writefile{lot}{\contentsline {table}{\numberline {3}{\ignorespaces B\IeC {\`a}i 1 - N\IeC {\u a}m 2017 a}}{6}{table.3}}
\newlabel{tab:addlabel}{{3}{6}{Bài 1 - Năm 2017 a}{table.3}{}}
\@writefile{lot}{\contentsline {table}{\numberline {4}{\ignorespaces B\IeC {\`a}i 2}}{6}{table.4}}
\newlabel{tab:addlabel}{{4}{6}{Bài 2}{table.4}{}}
