\relax 
\providecommand\hyper@newdestlabel[2]{}
\providecommand\BKM@entry[2]{}
\providecommand\HyperFirstAtBeginDocument{\AtBeginDocument}
\HyperFirstAtBeginDocument{\ifx\hyper@anchor\@undefined
\global\let\oldcontentsline\contentsline
\gdef\contentsline#1#2#3#4{\oldcontentsline{#1}{#2}{#3}}
\global\let\oldnewlabel\newlabel
\gdef\newlabel#1#2{\newlabelxx{#1}#2}
\gdef\newlabelxx#1#2#3#4#5#6{\oldnewlabel{#1}{{#2}{#3}}}
\AtEndDocument{\ifx\hyper@anchor\@undefined
\let\contentsline\oldcontentsline
\let\newlabel\oldnewlabel
\fi}
\fi}
\global\let\hyper@last\relax 
\gdef\HyperFirstAtBeginDocument#1{#1}
\providecommand\HyField@AuxAddToFields[1]{}
\providecommand\HyField@AuxAddToCoFields[2]{}
\BKM@entry{id=1,dest={73656374696F6E2E31},srcline={20}}{5C3332302074686920616E20746F5C3334306E202D206C6975206C6E67206E616D2032303138}
\@writefile{toc}{\contentsline {section}{\numberline {1}\IeC {\DJ }\IeC {\`\ecircumflex } thi an to\IeC {\`a}n - li\IeC {\`\ecircumflex }u l\IeC {\uhorn }\IeC {\d \ohorn }ng n\IeC {\u a}m 2018}{1}{section.1}}
\BKM@entry{id=2,dest={73656374696F6E2E32},srcline={88}}{5C3332302074686920414E20544F5C3330304E204C4955204C4E47202D204E414D2032303132}
\@writefile{lof}{\contentsline {figure}{\numberline {1}{\ignorespaces H\IeC {\`\i }nh \IeC {\h a}nh b\IeC {\`a}i 2018}}{2}{figure.1}}
\@writefile{toc}{\contentsline {section}{\numberline {2}\IeC {\DJ }\IeC {\`\ecircumflex } thi AN TO\IeC {\`A}N LI\IeC {\`\ECIRCUMFLEX }U L\IeC {\UHORN }\IeC {\d \OHORN }NG - N\IeC {\u A}M 2012}{3}{section.2}}
\BKM@entry{id=3,dest={73656374696F6E2E33},srcline={284}}{425C3334306920747020414E20544F5C3330304E}
\@writefile{toc}{\contentsline {section}{\numberline {3}B\IeC {\`a}i t\IeC {\d \acircumflex }p AN TO\IeC {\`A}N}{7}{section.3}}
\@writefile{lof}{\contentsline {figure}{\numberline {2}{\ignorespaces B\IeC {\`a}i 16a}}{10}{figure.2}}
