\relax 
\providecommand\hyper@newdestlabel[2]{}
\providecommand\BKM@entry[2]{}
\providecommand\HyperFirstAtBeginDocument{\AtBeginDocument}
\HyperFirstAtBeginDocument{\ifx\hyper@anchor\@undefined
\global\let\oldcontentsline\contentsline
\gdef\contentsline#1#2#3#4{\oldcontentsline{#1}{#2}{#3}}
\global\let\oldnewlabel\newlabel
\gdef\newlabel#1#2{\newlabelxx{#1}#2}
\gdef\newlabelxx#1#2#3#4#5#6{\oldnewlabel{#1}{{#2}{#3}}}
\AtEndDocument{\ifx\hyper@anchor\@undefined
\let\contentsline\oldcontentsline
\let\newlabel\oldnewlabel
\fi}
\fi}
\global\let\hyper@last\relax 
\gdef\HyperFirstAtBeginDocument#1{#1}
\providecommand\HyField@AuxAddToFields[1]{}
\providecommand\HyField@AuxAddToCoFields[2]{}
\BKM@entry{id=1,dest={73656374696F6E2E31},srcline={13}}{425C333430692031}
\BKM@entry{id=2,dest={73656374696F6E2E32},srcline={17}}{425C333430692032}
\BKM@entry{id=3,dest={73656374696F6E2E33},srcline={21}}{425C333430692033}
\BKM@entry{id=4,dest={73656374696F6E2E34},srcline={25}}{425C333430692034}
\BKM@entry{id=5,dest={73656374696F6E2E35},srcline={31}}{425C333430692036}
\BKM@entry{id=6,dest={73656374696F6E2E36},srcline={51}}{425C333430692037}
\@writefile{toc}{\contentsline {section}{\numberline {1}B\IeC {\`a}i 1}{1}{section.1}}
\@writefile{toc}{\contentsline {section}{\numberline {2}B\IeC {\`a}i 2}{1}{section.2}}
\@writefile{toc}{\contentsline {section}{\numberline {3}B\IeC {\`a}i 3}{1}{section.3}}
\@writefile{toc}{\contentsline {section}{\numberline {4}B\IeC {\`a}i 4}{1}{section.4}}
\@writefile{toc}{\contentsline {section}{\numberline {5}B\IeC {\`a}i 6}{1}{section.5}}
\BKM@entry{id=7,dest={73656374696F6E2E37},srcline={57}}{425C333430692038}
\@writefile{toc}{\contentsline {section}{\numberline {6}B\IeC {\`a}i 7}{2}{section.6}}
\@writefile{toc}{\contentsline {section}{\numberline {7}B\IeC {\`a}i 8}{2}{section.7}}
