\relax 
\providecommand\hyper@newdestlabel[2]{}
\providecommand\BKM@entry[2]{}
\providecommand\HyperFirstAtBeginDocument{\AtBeginDocument}
\HyperFirstAtBeginDocument{\ifx\hyper@anchor\@undefined
\global\let\oldcontentsline\contentsline
\gdef\contentsline#1#2#3#4{\oldcontentsline{#1}{#2}{#3}}
\global\let\oldnewlabel\newlabel
\gdef\newlabel#1#2{\newlabelxx{#1}#2}
\gdef\newlabelxx#1#2#3#4#5#6{\oldnewlabel{#1}{{#2}{#3}}}
\AtEndDocument{\ifx\hyper@anchor\@undefined
\let\contentsline\oldcontentsline
\let\newlabel\oldnewlabel
\fi}
\fi}
\global\let\hyper@last\relax 
\gdef\HyperFirstAtBeginDocument#1{#1}
\providecommand\HyField@AuxAddToFields[1]{}
\providecommand\HyField@AuxAddToCoFields[2]{}
\BKM@entry{id=1,dest={73656374696F6E2E31},srcline={19}}{545C3233326E6820696E}
\BKM@entry{id=2,dest={73656374696F6E2E32},srcline={66}}{545C3233326E682074}
\@writefile{toc}{\contentsline {section}{\numberline {1}T\IeC {\~\i }nh \IeC {\dj }i\IeC {\d \ecircumflex }n}{1}{section.1}}
\BKM@entry{id=3,dest={73656374696F6E2E33},srcline={100}}{54726E6720696E2074}
\BKM@entry{id=4,dest={73656374696F6E2E34},srcline={114}}{535C3336336E6720696E2074}
\@writefile{toc}{\contentsline {section}{\numberline {2}T\IeC {\~\i }nh t\IeC {\`\uhorn }}{2}{section.2}}
\@writefile{toc}{\contentsline {section}{\numberline {3}Tr\IeC {\uhorn }\IeC {\`\ohorn }ng \IeC {\dj }i\IeC {\d \ecircumflex }n t\IeC {\`\uhorn }}{2}{section.3}}
\@writefile{toc}{\contentsline {section}{\numberline {4}S\IeC {\'o}ng \IeC {\dj }i\IeC {\d \ecircumflex }n t\IeC {\`\uhorn }}{3}{section.4}}
\@writefile{lof}{\contentsline {figure}{\numberline {1}{\ignorespaces S\IeC {\'o}ng Ph\IeC {\^a}n c\IeC {\d \uhorn }c}}{5}{figure.1}}
\BKM@entry{id=5,dest={73656374696F6E2E35},srcline={402}}{565C333535206475}
\BKM@entry{id=6,dest={73756273656374696F6E2E352E31},srcline={403}}{425C333430692031}
\@writefile{toc}{\contentsline {section}{\numberline {5}V\IeC {\'\i } d\IeC {\d u}}{8}{section.5}}
\@writefile{toc}{\contentsline {subsection}{\numberline {5.1}B\IeC {\`a}i 1}{8}{subsection.5.1}}
\BKM@entry{id=7,dest={73756273656374696F6E2E352E32},srcline={415}}{4769616920635C333432752031}
\@writefile{toc}{\contentsline {subsection}{\numberline {5.2}Gi\IeC {\h a}i c\IeC {\^a}u 1}{9}{subsection.5.2}}
\BKM@entry{id=8,dest={73756273656374696F6E2E352E33},srcline={493}}{425C333430692032}
\BKM@entry{id=9,dest={73756273656374696F6E2E352E34},srcline={499}}{4769616920625C333430692032}
\@writefile{lof}{\contentsline {figure}{\numberline {2}{\ignorespaces H\IeC {\`\i }nh v\IeC {\~ e} v\IeC {\'\i } d\IeC {\d u} - 2018}}{10}{figure.2}}
\@writefile{toc}{\contentsline {subsection}{\numberline {5.3}B\IeC {\`a}i 2}{10}{subsection.5.3}}
\@writefile{toc}{\contentsline {subsection}{\numberline {5.4}Gi\IeC {\h a}i b\IeC {\`a}i 2}{11}{subsection.5.4}}
\BKM@entry{id=10,dest={73656374696F6E2E36},srcline={572}}{47696169205C303430486F63206B5C3335342031202D2032303137}
\BKM@entry{id=11,dest={73756273656374696F6E2E362E31},srcline={573}}{435C333432752031}
\@writefile{toc}{\contentsline {section}{\numberline {6}Gi\IeC {\h a}i \IeC {\dj }\IeC {\`\ecircumflex } H\IeC {\d o}c k\IeC {\`\i } 1 - 2017}{12}{section.6}}
\@writefile{toc}{\contentsline {subsection}{\numberline {6.1}C\IeC {\^a}u 1}{12}{subsection.6.1}}
\BKM@entry{id=12,dest={73756273656374696F6E2E362E32},srcline={619}}{435C333432752032}
\@writefile{toc}{\contentsline {subsection}{\numberline {6.2}C\IeC {\^a}u 2}{13}{subsection.6.2}}
\@writefile{lof}{\contentsline {figure}{\numberline {3}{\ignorespaces H\IeC {\`\i }nh b\IeC {\`a}i H\IeC {\d O}C K\IeC {\`I} 1 - 2017}}{13}{figure.3}}
\@writefile{lof}{\contentsline {figure}{\numberline {4}{\ignorespaces H\IeC {\`\i }nh b\IeC {\`a}i H\IeC {\d O}C K\IeC {\`I} 1 - 2017}}{14}{figure.4}}
\BKM@entry{id=13,dest={73756273656374696F6E2E362E33},srcline={703}}{435C333432752033}
\@writefile{toc}{\contentsline {subsection}{\numberline {6.3}C\IeC {\^a}u 3}{15}{subsection.6.3}}
\@writefile{lof}{\contentsline {figure}{\numberline {5}{\ignorespaces H\IeC {\`\i }nh b\IeC {\`a}i H\IeC {\d O}C K\IeC {\`I} 1 - 2017}}{16}{figure.5}}
\BKM@entry{id=14,dest={73656374696F6E2E37},srcline={765}}{47696169205C303430486F63206B5C3335342031202D2032303138}
\BKM@entry{id=15,dest={73756273656374696F6E2E372E31},srcline={766}}{435C333432752031}
\BKM@entry{id=16,dest={73756273656374696F6E2E372E32},srcline={799}}{435C333432752032}
\@writefile{toc}{\contentsline {section}{\numberline {7}Gi\IeC {\h a}i \IeC {\dj }\IeC {\`\ecircumflex } H\IeC {\d o}c k\IeC {\`\i } 1 - 2018}{17}{section.7}}
\@writefile{toc}{\contentsline {subsection}{\numberline {7.1}C\IeC {\^a}u 1}{17}{subsection.7.1}}
\@writefile{toc}{\contentsline {subsection}{\numberline {7.2}C\IeC {\^a}u 2}{18}{subsection.7.2}}
\@writefile{lof}{\contentsline {figure}{\numberline {6}{\ignorespaces H\IeC {\`\i }nh v\IeC {\~ e} b\IeC {\`a}i thi h\IeC {\d o}c k\IeC {\`\i } 1 - 2018}}{18}{figure.6}}
\BKM@entry{id=17,dest={73756273656374696F6E2E372E33},srcline={855}}{435C333432752033}
\@writefile{toc}{\contentsline {subsection}{\numberline {7.3}C\IeC {\^a}u 3}{19}{subsection.7.3}}
\@writefile{lof}{\contentsline {figure}{\numberline {7}{\ignorespaces H\IeC {\`\i }nh v\IeC {\~ e} b\IeC {\`a}i thi h\IeC {\d o}c k\IeC {\`\i } 1 - 2018}}{19}{figure.7}}
\BKM@entry{id=18,dest={73656374696F6E2E38},srcline={902}}{47696169205C303430486F63206B5C3335342032202D2032303137}
\BKM@entry{id=19,dest={73756273656374696F6E2E382E31},srcline={903}}{435C333432752031}
\BKM@entry{id=20,dest={73756273656374696F6E2E382E32},srcline={930}}{435C333432752032}
\@writefile{toc}{\contentsline {section}{\numberline {8}Gi\IeC {\h a}i \IeC {\dj }\IeC {\`\ecircumflex } H\IeC {\d o}c k\IeC {\`\i } 2 - 2017}{21}{section.8}}
\@writefile{toc}{\contentsline {subsection}{\numberline {8.1}C\IeC {\^a}u 1}{21}{subsection.8.1}}
\@writefile{lof}{\contentsline {figure}{\numberline {8}{\ignorespaces Ngu\IeC {\`\ocircumflex }n \IeC {\dj }i ra xa m\IeC {\'a}y thu}}{21}{figure.8}}
\@writefile{lof}{\contentsline {figure}{\numberline {9}{\ignorespaces Ngu\IeC {\`\ocircumflex }n l\IeC {\d a}i g\IeC {\`\acircumflex }n m\IeC {\'a}y thu}}{21}{figure.9}}
\@writefile{toc}{\contentsline {subsection}{\numberline {8.2}C\IeC {\^a}u 2}{21}{subsection.8.2}}
\BKM@entry{id=21,dest={73756273656374696F6E2E382E33},srcline={953}}{435C333432752033}
\BKM@entry{id=22,dest={73656374696F6E2E39},srcline={990}}{565C333535206475205C333431702064756E6720696E68206C756E204D617877656C6C202D2046617261646179}
\@writefile{toc}{\contentsline {subsection}{\numberline {8.3}C\IeC {\^a}u 3}{22}{subsection.8.3}}
\@writefile{toc}{\contentsline {section}{\numberline {9}V\IeC {\'\i } d\IeC {\d u} \IeC {\'a}p d\IeC {\d u}ng \IeC {\dj }\IeC {\d i}nh lu\IeC {\d \acircumflex }n Maxwell - Faraday}{23}{section.9}}
\BKM@entry{id=23,dest={73656374696F6E2E3130},srcline={1033}}{425C33343069206769616920696E206E67206C632032303138}
\BKM@entry{id=24,dest={73756273656374696F6E2E31302E31},srcline={1034}}{435C333432752031}
\BKM@entry{id=25,dest={73756273656374696F6E2E31302E32},srcline={1060}}{435C333432752032}
\@writefile{toc}{\contentsline {section}{\numberline {10}B\IeC {\`a}i gi\IeC {\h a}i \IeC {\dj }i\IeC {\d \ecircumflex }n \IeC {\dj }\IeC {\d \ocircumflex }ng l\IeC {\d \uhorn }c 2018}{24}{section.10}}
\@writefile{toc}{\contentsline {subsection}{\numberline {10.1}C\IeC {\^a}u 1}{24}{subsection.10.1}}
\@writefile{toc}{\contentsline {subsection}{\numberline {10.2}C\IeC {\^a}u 2}{24}{subsection.10.2}}
\BKM@entry{id=26,dest={73756273656374696F6E2E31302E33},srcline={1083}}{435C333432752033}
\@writefile{toc}{\contentsline {subsection}{\numberline {10.3}C\IeC {\^a}u 3}{25}{subsection.10.3}}
