\relax 
\providecommand\hyper@newdestlabel[2]{}
\providecommand\BKM@entry[2]{}
\providecommand\HyperFirstAtBeginDocument{\AtBeginDocument}
\HyperFirstAtBeginDocument{\ifx\hyper@anchor\@undefined
\global\let\oldcontentsline\contentsline
\gdef\contentsline#1#2#3#4{\oldcontentsline{#1}{#2}{#3}}
\global\let\oldnewlabel\newlabel
\gdef\newlabel#1#2{\newlabelxx{#1}#2}
\gdef\newlabelxx#1#2#3#4#5#6{\oldnewlabel{#1}{{#2}{#3}}}
\AtEndDocument{\ifx\hyper@anchor\@undefined
\let\contentsline\oldcontentsline
\let\newlabel\oldnewlabel
\fi}
\fi}
\global\let\hyper@last\relax 
\gdef\HyperFirstAtBeginDocument#1{#1}
\providecommand\HyField@AuxAddToFields[1]{}
\providecommand\HyField@AuxAddToCoFields[2]{}
\BKM@entry{id=1,dest={73656374696F6E2E31},srcline={13}}{4B696D20696E682074686E67206B5C333532}
\BKM@entry{id=2,dest={73756273656374696F6E2E312E31},srcline={14}}{435C3334316320626320632062616E}
\BKM@entry{id=3,dest={73756273656374696F6E2E312E32},srcline={63}}{4B696D20696E682031206D75}
\BKM@entry{id=4,dest={73756273756273656374696F6E2E312E322E31},srcline={64}}{4B696D20696E68206B5C33353420766F6E672030202D204269742070686E67207361692032}
\BKM@entry{id=5,dest={73756273756273656374696F6E2E312E322E32},srcline={79}}{4B696D20696E68206B5C33353420766F6E672030202D20436861206269742070686E67207361692032}
\BKM@entry{id=6,dest={73756273756273656374696F6E2E312E322E33},srcline={116}}{4B696D20696E68207479206C}
\BKM@entry{id=7,dest={73656374696F6E2E32},srcline={133}}{63206C6E67206B5C33353420766F6E67}
\BKM@entry{id=8,dest={73756273656374696F6E2E322E31},srcline={134}}{436861206269742070686E6720736169}
\BKM@entry{id=9,dest={73756273756273656374696F6E2E322E312E31},srcline={135}}{4D75206E686F202C206E3C3330}
\@writefile{toc}{\contentsline {section}{\numberline {1}Ki\IeC {\h \ecircumflex }m \IeC {\dj }\IeC {\d i}nh th\IeC {\'\ocircumflex }ng k\IeC {\^e}}{1}{section.1}}
\@writefile{toc}{\contentsline {subsection}{\numberline {1.1}C\IeC {\'a}c b\IeC {\uhorn }\IeC {\'\ohorn }c c\IeC {\ohorn } b\IeC {\h a}n}{1}{subsection.1.1}}
\@writefile{toc}{\contentsline {subsection}{\numberline {1.2}Ki\IeC {\h \ecircumflex }m \IeC {\dj }\IeC {\d i}nh 1 m\IeC {\~\acircumflex }u}{1}{subsection.1.2}}
\@writefile{toc}{\contentsline {subsubsection}{\numberline {1.2.1}Ki\IeC {\h \ecircumflex }m \IeC {\dj }\IeC {\d i}nh k\IeC {\`\i } v\IeC {\d o}ng $\mu _0$ - Bi\IeC {\'\ecircumflex }t ph\IeC {\uhorn }\IeC {\ohorn }ng sai $\sigma ^2$}{1}{subsubsection.1.2.1}}
\@writefile{lot}{\contentsline {table}{\numberline {1}{\ignorespaces Ki\IeC {\h \ecircumflex }m \IeC {\dj }\IeC {\d i}nh 1 k\IeC {\`\i } v\IeC {\d o}ng - bi\IeC {\'\ecircumflex }t ph\IeC {\uhorn }\IeC {\ohorn }ng sai }}{1}{table.1}}
\@writefile{lot}{\contentsline {table}{\numberline {2}{\ignorespaces Ki\IeC {\h \ecircumflex }m \IeC {\dj }\IeC {\d i}nh 1 k\IeC {\`\i } v\IeC {\d o}ng - ch\IeC {\uhorn }a bi\IeC {\'\ecircumflex }t ph\IeC {\uhorn }\IeC {\ohorn }ng sai - M\IeC {\~\acircumflex }u nh\IeC {\h o}}}{1}{table.2}}
\@writefile{toc}{\contentsline {subsubsection}{\numberline {1.2.2}Ki\IeC {\h \ecircumflex }m \IeC {\dj }\IeC {\d i}nh k\IeC {\`\i } v\IeC {\d o}ng $\mu _0$ - Ch\IeC {\uhorn }a bi\IeC {\'\ecircumflex }t ph\IeC {\uhorn }\IeC {\ohorn }ng sai $\sigma ^2$}{1}{subsubsection.1.2.2}}
\@writefile{lot}{\contentsline {table}{\numberline {3}{\ignorespaces Ki\IeC {\h \ecircumflex }m \IeC {\dj }\IeC {\d i}nh 1 k\IeC {\`\i } v\IeC {\d o}ng - ch\IeC {\uhorn }a bi\IeC {\'\ecircumflex }t ph\IeC {\uhorn }\IeC {\ohorn }ng sai - M\IeC {\~\acircumflex }u l\IeC {\'\ohorn }n}}{1}{table.3}}
\@writefile{toc}{\contentsline {subsubsection}{\numberline {1.2.3}Ki\IeC {\h \ecircumflex }m \IeC {\dj }\IeC {\d i}nh t\IeC {\h y} l\IeC {\d \ecircumflex }}{1}{subsubsection.1.2.3}}
\@writefile{lot}{\contentsline {table}{\numberline {4}{\ignorespaces Ki\IeC {\h \ecircumflex }m \IeC {\dj }\IeC {\d i}nh 1 t\IeC {\h y} l\IeC {\d \ecircumflex }}}{1}{table.4}}
\@writefile{toc}{\contentsline {section}{\numberline {2}\IeC {\UHORN }\IeC {\'\ohorn }c l\IeC {\uhorn }\IeC {\d \ohorn }ng k\IeC {\`\i } v\IeC {\d o}ng}{1}{section.2}}
\@writefile{toc}{\contentsline {subsection}{\numberline {2.1}Ch\IeC {\uhorn }a bi\IeC {\'\ecircumflex }t ph\IeC {\uhorn }\IeC {\ohorn }ng sai}{1}{subsection.2.1}}
\@writefile{toc}{\contentsline {subsubsection}{\numberline {2.1.1}M\IeC {\~\acircumflex }u nh\IeC {\h o} , n<30}{1}{subsubsection.2.1.1}}
\BKM@entry{id=10,dest={73756273756273656374696F6E2E322E312E32},srcline={156}}{4D75206C6E202C206E3E3330}
\BKM@entry{id=11,dest={73756273656374696F6E2E322E32},srcline={178}}{4269742070686E6720736169}
\BKM@entry{id=12,dest={73756273656374696F6E2E322E33},srcline={193}}{63206C6E67207479206C}
\BKM@entry{id=13,dest={73656374696F6E2E33},srcline={208}}{50685C3334326E206220785C3334316320737574}
\BKM@entry{id=14,dest={73756273656374696F6E2E332E31},srcline={209}}{485C3334306D2070685C3334326E206220785C3334316320737574}
\BKM@entry{id=15,dest={73656374696F6E2E34},srcline={244}}{47696169205C30343032303137}
\BKM@entry{id=16,dest={73756273656374696F6E2E342E31},srcline={245}}{435C333432752031}
\@writefile{toc}{\contentsline {subsubsection}{\numberline {2.1.2}M\IeC {\~\acircumflex }u l\IeC {\'\ohorn }n , n>30}{2}{subsubsection.2.1.2}}
\@writefile{toc}{\contentsline {subsection}{\numberline {2.2}Bi\IeC {\'\ecircumflex }t ph\IeC {\uhorn }\IeC {\ohorn }ng sai}{2}{subsection.2.2}}
\@writefile{toc}{\contentsline {subsection}{\numberline {2.3}\IeC {\UHORN }\IeC {\'\ohorn }c l\IeC {\uhorn }\IeC {\d \ohorn }ng t\IeC {\h y} l\IeC {\d \ecircumflex }}{2}{subsection.2.3}}
\@writefile{toc}{\contentsline {section}{\numberline {3}Ph\IeC {\^a}n b\IeC {\'\ocircumflex } x\IeC {\'a}c su\IeC {\'\acircumflex }t}{2}{section.3}}
\@writefile{toc}{\contentsline {subsection}{\numberline {3.1}H\IeC {\`a}m ph\IeC {\^a}n b\IeC {\'\ocircumflex } x\IeC {\'a}c su\IeC {\'\acircumflex }t}{2}{subsection.3.1}}
\@writefile{toc}{\contentsline {section}{\numberline {4}Gi\IeC {\h a}i \IeC {\dj }\IeC {\`\ecircumflex } 2017}{2}{section.4}}
\@writefile{toc}{\contentsline {subsection}{\numberline {4.1}C\IeC {\^a}u 1}{2}{subsection.4.1}}
\BKM@entry{id=17,dest={73756273656374696F6E2E342E32},srcline={310}}{435C333432752032}
\@writefile{toc}{\contentsline {subsection}{\numberline {4.2}C\IeC {\^a}u 2}{3}{subsection.4.2}}
